%YAML 1.1
%TAG !u! tag:unity3d.com,2011:
--- !u!114 &11400000
MonoBehaviour:
  m_ObjectHideFlags: 0
  m_CorrespondingSourceObject: {fileID: 0}
  m_PrefabInstance: {fileID: 0}
  m_PrefabAsset: {fileID: 0}
  m_GameObject: {fileID: 0}
  m_Enabled: 1
  m_EditorHideFlags: 0
  m_Script: {fileID: 11500000, guid: 073f7016030d54aa79bdecee2e358475, type: 3}
  m_Name: CFAD Audio Library
  m_EditorClassIdentifier: 
  audioClips:
  - ClipTag: 0
    Clip: {fileID: 8300000, guid: 32978bf25897f4d5a863653f9793eaf4, type: 3}
    Loop: 0
    Volume: 1
    Pitch: 1
  - ClipTag: 1
    Clip: {fileID: 8300000, guid: 392d144a8aaf9462ca913fbdba897b27, type: 3}
    Loop: 0
    Volume: 1
    Pitch: 1
  - ClipTag: 2
    Clip: {fileID: 8300000, guid: 79921fbdfcc014884b97b7224447d36c, type: 3}
    Loop: 0
    Volume: 1
    Pitch: 1
  - ClipTag: 3
    Clip: {fileID: 8300000, guid: 67cb7ff3bb629476aa4ccc5e342319b1, type: 3}
    Loop: 0
    Volume: 1
    Pitch: 1
  - ClipTag: 4
    Clip: {fileID: 8300000, guid: 67cb7ff3bb629476aa4ccc5e342319b1, type: 3}
    Loop: 0
    Volume: 1
    Pitch: 1
  - ClipTag: 5
    Clip: {fileID: 8300000, guid: fb68da923008741649821d321f0142eb, type: 3}
    Loop: 0
    Volume: 1
    Pitch: 1
  - ClipTag: 6
    Clip: {fileID: 8300000, guid: 4e89ddb7b3b8c4066af292ccfeb8c915, type: 3}
    Loop: 0
    Volume: 1
    Pitch: 1
  - ClipTag: 7
    Clip: {fileID: 8300000, guid: be38fa91e58d541799d7894b36c00c01, type: 3}
    Loop: 0
    Volume: 1
    Pitch: 1
  - ClipTag: 8
    Clip: {fileID: 8300000, guid: a05e4a69fd950462495b7522378079fd, type: 3}
    Loop: 0
    Volume: 1
    Pitch: 1
  - ClipTag: 9
    Clip: {fileID: 8300000, guid: 6d91d1c0c927648049b46342c0b8f744, type: 3}
    Loop: 0
    Volume: 1
    Pitch: 1
  - ClipTag: 10
    Clip: {fileID: 8300000, guid: a4ca7ea19f5574faeabbc68a37d3c2aa, type: 3}
    Loop: 1
    Volume: 1
    Pitch: 1
  - ClipTag: 11
    Clip: {fileID: 8300000, guid: 65c136378c4d34d93bed8cd74c935f9b, type: 3}
    Loop: 0
    Volume: 1
    Pitch: 1
  - ClipTag: 15
    Clip: {fileID: 8300000, guid: c32b4b10d0bfb489aa6981b3f7f5c06c, type: 3}
    Loop: 1
    Volume: 0.5
    Pitch: 1
  - ClipTag: 16
    Clip: {fileID: 8300000, guid: 6b33c6891d279425bb843c6069c0e8c3, type: 3}
    Loop: 1
    Volume: 0.5
    Pitch: 1
  - ClipTag: 17
    Clip: {fileID: 8300000, guid: 88ba73807a8894680b028bf0cdfc2303, type: 3}
    Loop: 1
    Volume: 0.5
    Pitch: 1
  - ClipTag: 18
    Clip: {fileID: 8300000, guid: 3c7cf293338444d8c890ef6e91f570e5, type: 3}
    Loop: 1
    Volume: 0.5
    Pitch: 1
